{
    "env": {
        "SECRET": "humi mehaber mazganim ba hosheh",
        "RECAPTCHA_SECRET": "6LetXl0UAAAAABJZFKLl2OG0zdWjK9JGwyd6WK7S",
        "EMAIL": "eliongame.mail@gmail.com",
        "EMAIL_PASSWORD": "NoderNedarim123"
    }
}